singlechip_74ls595/simulation/qsim/singlechip_74ls595.msim.vcd
$comment
	File created using the following command:
		vcd file singlechip_74ls595.msim.vcd -direction
$end
$date
	Sun Dec 02 19:33:08 2018
$end
$version
	ModelSim Version 10.3d
$end
$timescale
	1ps
$end

$scope module singlechip_74ls595_test_vlg_vec_tst $end
$var reg 1 ! G $end
$var reg 1 " RCK $end
$var reg 1 # SCK $end
$var reg 1 $ SCLR $end
$var reg 1 % SI $end
$var reg 1 & clk $end
$var wire 1 ' Q [7] $end
$var wire 1 ( Q [6] $end
$var wire 1 ) Q [5] $end
$var wire 1 * Q [4] $end
$var wire 1 + Q [3] $end
$var wire 1 , Q [2] $end
$var wire 1 - Q [1] $end
$var wire 1 . Q [0] $end
$var wire 1 / QH $end
$var wire 1 0 sampler $end

$scope module i1 $end
$var wire 1 1 gnd $end
$var wire 1 2 vcc $end
$var wire 1 3 unknown $end
$var tri1 1 4 devclrn $end
$var tri1 1 5 devpor $end
$var tri1 1 6 devoe $end
$var wire 1 7 clk~input_o $end
$var wire 1 8 Q[0]~output_o $end
$var wire 1 9 Q[1]~output_o $end
$var wire 1 : Q[2]~output_o $end
$var wire 1 ; Q[3]~output_o $end
$var wire 1 < Q[4]~output_o $end
$var wire 1 = Q[5]~output_o $end
$var wire 1 > Q[6]~output_o $end
$var wire 1 ? Q[7]~output_o $end
$var wire 1 @ QH~output_o $end
$var wire 1 A RCK~input_o $end
$var wire 1 B RCK~inputclkctrl_outclk $end
$var wire 1 C SCLR~input_o $end
$var wire 1 D SCK~input_o $end
$var wire 1 E SCK~inputclkctrl_outclk $end
$var wire 1 F SI~input_o $end
$var wire 1 G u1|F0|Q_temp~feeder_combout $end
$var wire 1 H u1|F0|Q_temp~q $end
$var wire 1 I u1|F0|Q~0_combout $end
$var wire 1 J u1|OUT0|Q_temp~q $end
$var wire 1 K G~input_o $end
$var wire 1 L u1|F1|Q_temp~feeder_combout $end
$var wire 1 M u1|F1|Q_temp~q $end
$var wire 1 N u1|F1|Q~0_combout $end
$var wire 1 O u1|OUT1|Q_temp~q $end
$var wire 1 P u1|F2|Q_temp~feeder_combout $end
$var wire 1 Q u1|F2|Q_temp~q $end
$var wire 1 R u1|F2|Q~0_combout $end
$var wire 1 S u1|OUT2|Q_temp~q $end
$var wire 1 T u1|F3|Q_temp~feeder_combout $end
$var wire 1 U u1|F3|Q_temp~q $end
$var wire 1 V u1|F3|Q~0_combout $end
$var wire 1 W u1|OUT3|Q_temp~q $end
$var wire 1 X u1|F4|Q_temp~q $end
$var wire 1 Y u1|F4|Q~0_combout $end
$var wire 1 Z u1|OUT4|Q_temp~q $end
$var wire 1 [ u1|F5|Q_temp~feeder_combout $end
$var wire 1 \ u1|F5|Q_temp~q $end
$var wire 1 ] u1|F5|Q~0_combout $end
$var wire 1 ^ u1|OUT5|Q_temp~q $end
$var wire 1 _ u1|F6|Q_temp~feeder_combout $end
$var wire 1 ` u1|F6|Q_temp~q $end
$var wire 1 a u1|F6|Q~0_combout $end
$var wire 1 b u1|OUT6|Q_temp~q $end
$var wire 1 c u1|F7|Q_temp~feeder_combout $end
$var wire 1 d u1|F7|Q_temp~q $end
$var wire 1 e u1|F7|Q~2_combout $end
$var wire 1 f u1|OUT7|Q_temp~q $end
$var wire 1 g u1|F7|Q~1_combout $end
$upscope $end
$upscope $end
$enddefinitions $end
#0
$dumpvars
0!
0"
0#
1$
1%
0&
0.
0-
0,
0+
0*
0)
0(
0'
0/
x0
01
12
x3
14
15
16
07
08
09
0:
0;
0<
0=
0>
0?
0@
0A
0B
1C
0D
0E
1F
1G
0H
0I
0J
0K
0L
0M
0N
0O
0P
0Q
0R
0S
0T
0U
0V
0W
0X
0Y
0Z
0[
0\
0]
0^
0_
0`
0a
0b
0c
0d
0e
0f
0g
$end
#5000
1"
1#
1&
1A
1D
17
00
1E
1B
1H
1I
1L
#10000
0%
0"
0#
0&
0F
0A
0D
07
10
0E
0B
0G
#15000
1"
1#
1&
1A
1D
17
00
1E
1B
1M
0H
1J
18
1N
0I
1.
1P
0L
#20000
0"
0#
0&
0A
0D
07
10
0E
0B
#25000
1"
1#
1&
1A
1D
17
00
1E
1B
1Q
0M
1O
0J
08
19
1R
0N
0.
1-
1T
0P
#30000
0"
0#
0&
0A
0D
07
10
0E
0B
#35000
1"
1#
1&
1A
1D
17
00
1E
1B
1U
0Q
1S
0O
09
1:
1V
0R
0-
1,
0T
#40000
0"
0#
0&
0A
0D
07
10
0E
0B
#45000
1"
1#
1&
1A
1D
17
00
1E
1B
1X
0U
1W
0S
0:
1;
1Y
0V
0,
1+
1[
#50000
0"
0#
0&
0A
0D
07
10
0E
0B
#55000
1"
1#
1&
1A
1D
17
00
1E
1B
1\
0X
1Z
0W
0;
1<
1]
0Y
0+
1*
1_
0[
#60000
0"
0#
0&
0A
0D
07
10
0E
0B
#65000
1"
1#
1&
1A
1D
17
00
1E
1B
1`
0\
1^
0Z
0<
1=
1a
0]
0*
1)
1c
0_
#70000
0"
0#
0&
0A
0D
07
10
0E
0B
#75000
1"
1#
1&
1A
1D
17
00
1E
1B
1d
0`
1b
0^
0=
1>
0a
0)
1(
1g
1e
1@
1/
0c
#80000
0"
0#
0&
0A
0D
07
10
0E
0B
#85000
1"
1#
1&
1A
1D
17
00
1E
1B
0d
1f
0b
0>
1?
0(
1'
0g
0e
0@
0/
#90000
0"
0#
0&
0A
0D
07
10
0E
0B
#95000
1"
1#
1&
1A
1D
17
00
1E
1B
0f
0?
0'
#100000
0"
0#
0&
0A
0D
07
10
0E
0B
#105000
1"
1#
1&
1A
1D
17
00
1E
1B
#110000
0"
0#
0&
0A
0D
07
10
0E
0B
#115000
1"
1#
1&
1A
1D
17
00
1E
1B
#120000
0"
0#
0&
0A
0D
07
10
0E
0B
#125000
1"
1#
1&
1A
1D
17
00
1E
1B
#130000
0"
0#
0&
0A
0D
07
10
0E
0B
#135000
1"
1#
1&
1A
1D
17
00
1E
1B
#140000
0"
0#
0&
0A
0D
07
10
0E
0B
#145000
1"
1#
1&
1A
1D
17
00
1E
1B
#150000
0"
0#
0&
0A
0D
07
10
0E
0B
#155000
1"
1#
1&
1A
1D
17
00
1E
1B
#160000
0"
0#
0&
0A
0D
07
10
0E
0B
#165000
1"
1#
1&
1A
1D
17
00
1E
1B
#170000
0"
0#
0&
0A
0D
07
10
0E
0B
#175000
1"
1#
1&
1A
1D
17
00
1E
1B
#180000
0"
0#
0&
0A
0D
07
10
0E
0B
#185000
1"
1#
1&
1A
1D
17
00
1E
1B
#190000
0"
0#
0&
0A
0D
07
10
0E
0B
#195000
1"
1#
1&
1A
1D
17
00
1E
1B
#200000
0"
0#
0&
0A
0D
07
10
0E
0B
#205000
1"
1#
1&
1A
1D
17
00
1E
1B
#210000
0"
0#
0&
0A
0D
07
10
0E
0B
#215000
1"
1#
1&
1A
1D
17
00
1E
1B
#220000
0"
0#
0&
0A
0D
07
10
0E
0B
#225000
1"
1#
1&
1A
1D
17
00
1E
1B
#230000
0"
0#
0&
0A
0D
07
10
0E
0B
#235000
1"
1#
1&
1A
1D
17
00
1E
1B
#240000
0"
0#
0&
0A
0D
07
10
0E
0B
#245000
1"
1#
1&
1A
1D
17
00
1E
1B
#250000
0"
0#
0&
0A
0D
07
10
0E
0B
#255000
1"
1#
1&
1A
1D
17
00
1E
1B
#260000
0"
0#
0&
0A
0D
07
10
0E
0B
#265000
1"
1#
1&
1A
1D
17
00
1E
1B
#270000
0"
0#
0&
0A
0D
07
10
0E
0B
#275000
1"
1#
1&
1A
1D
17
00
1E
1B
#280000
0"
0#
0&
0A
0D
07
10
0E
0B
#285000
1"
1#
1&
1A
1D
17
00
1E
1B
#290000
0"
0#
0&
0A
0D
07
10
0E
0B
#295000
1"
1#
1&
1A
1D
17
00
1E
1B
#300000
0"
0#
0&
0A
0D
07
10
0E
0B
#305000
1"
1#
1&
1A
1D
17
00
1E
1B
#310000
0"
0#
0&
0A
0D
07
10
0E
0B
#315000
1"
1#
1&
1A
1D
17
00
1E
1B
#320000
0"
0#
0&
0A
0D
07
10
0E
0B
#325000
1"
1#
1&
1A
1D
17
00
1E
1B
#330000
0"
0#
0&
0A
0D
07
10
0E
0B
#335000
1"
1#
1&
1A
1D
17
00
1E
1B
#340000
0$
0"
0#
0&
0C
0A
0D
07
10
0E
0B
#345000
1"
1#
1&
1A
1D
17
00
1E
1B
#350000
0"
0#
0&
0A
0D
07
10
0E
0B
#355000
1"
1#
1&
1A
1D
17
00
1E
1B
#360000
0"
0#
0&
0A
0D
07
10
0E
0B
#365000
1"
1#
1&
1A
1D
17
00
1E
1B
#370000
0"
0#
0&
0A
0D
07
10
0E
0B
#375000
1"
1#
1&
1A
1D
17
00
1E
1B
#380000
0"
0#
0&
0A
0D
07
10
0E
0B
#385000
1"
1#
1&
1A
1D
17
00
1E
1B
#390000
0"
0#
0&
0A
0D
07
10
0E
0B
#395000
1"
1#
1&
1A
1D
17
00
1E
1B
#400000
0"
0#
0&
0A
0D
07
10
0E
0B
#405000
1"
1#
1&
1A
1D
17
00
1E
1B
#410000
0"
0#
0&
0A
0D
07
10
0E
0B
#415000
1"
1#
1&
1A
1D
17
00
1E
1B
#420000
0"
0#
0&
0A
0D
07
10
0E
0B
#425000
1"
1#
1&
1A
1D
17
00
1E
1B
#430000
0"
0#
0&
0A
0D
07
10
0E
0B
#435000
1"
1#
1&
1A
1D
17
00
1E
1B
#440000
0"
0#
0&
0A
0D
07
10
0E
0B
#445000
1"
1#
1&
1A
1D
17
00
1E
1B
#450000
0"
0#
0&
0A
0D
07
10
0E
0B
#455000
1"
1#
1&
1A
1D
17
00
1E
1B
#460000
0"
0#
0&
0A
0D
07
10
0E
0B
#465000
1"
1#
1&
1A
1D
17
00
1E
1B
#470000
0"
0#
0&
0A
0D
07
10
0E
0B
#475000
1"
1#
1&
1A
1D
17
00
1E
1B
#480000
0"
0#
0&
0A
0D
07
10
0E
0B
#485000
1"
1#
1&
1A
1D
17
00
1E
1B
#490000
0"
0#
0&
0A
0D
07
10
0E
0B
#495000
1"
1#
1&
1A
1D
17
00
1E
1B
#500000
1!
0"
0#
0&
1K
0A
0D
07
10
0E
0B
z@
z?
z>
z=
z<
z;
z:
z9
z8
z/
z'
z(
z)
z*
z+
z,
z-
z.
1e
#505000
1"
1#
1&
1A
1D
17
00
1E
1B
1f
#510000
0"
0#
0&
0A
0D
07
10
0E
0B
#515000
1"
1#
1&
1A
1D
17
00
1E
1B
#520000
0"
0#
0&
0A
0D
07
10
0E
0B
#525000
1"
1#
1&
1A
1D
17
00
1E
1B
#530000
0"
0#
0&
0A
0D
07
10
0E
0B
#535000
1"
1#
1&
1A
1D
17
00
1E
1B
#540000
0"
0#
0&
0A
0D
07
10
0E
0B
#545000
1"
1#
1&
1A
1D
17
00
1E
1B
#550000
0"
0#
0&
0A
0D
07
10
0E
0B
#555000
1"
1#
1&
1A
1D
17
00
1E
1B
#560000
0"
0#
0&
0A
0D
07
10
0E
0B
#565000
1"
1#
1&
1A
1D
17
00
1E
1B
#570000
0"
0#
0&
0A
0D
07
10
0E
0B
#575000
1"
1#
1&
1A
1D
17
00
1E
1B
#580000
0"
0#
0&
0A
0D
07
10
0E
0B
#585000
1"
1#
1&
1A
1D
17
00
1E
1B
#590000
0"
0#
0&
0A
0D
07
10
0E
0B
#595000
1"
1#
1&
1A
1D
17
00
1E
1B
#600000
0"
0#
0&
0A
0D
07
10
0E
0B
#605000
1"
1#
1&
1A
1D
17
00
1E
1B
#610000
0"
0#
0&
0A
0D
07
10
0E
0B
#615000
1"
1#
1&
1A
1D
17
00
1E
1B
#620000
0"
0#
0&
0A
0D
07
10
0E
0B
#625000
1"
1#
1&
1A
1D
17
00
1E
1B
#630000
0"
0#
0&
0A
0D
07
10
0E
0B
#635000
1"
1#
1&
1A
1D
17
00
1E
1B
#640000
0"
0#
0&
0A
0D
07
10
0E
0B
#645000
1"
1#
1&
1A
1D
17
00
1E
1B
#650000
0"
0#
0&
0A
0D
07
10
0E
0B
#655000
1"
1#
1&
1A
1D
17
00
1E
1B
#660000
0"
0#
0&
0A
0D
07
10
0E
0B
#665000
1"
1#
1&
1A
1D
17
00
1E
1B
#670000
0"
0#
0&
0A
0D
07
10
0E
0B
#675000
1"
1#
1&
1A
1D
17
00
1E
1B
#680000
0"
0#
0&
0A
0D
07
10
0E
0B
#685000
1"
1#
1&
1A
1D
17
00
1E
1B
#690000
0"
0#
0&
0A
0D
07
10
0E
0B
#695000
1"
1#
1&
1A
1D
17
00
1E
1B
#700000
0"
0#
0&
0A
0D
07
10
0E
0B
#705000
1"
1#
1&
1A
1D
17
00
1E
1B
#710000
0"
0#
0&
0A
0D
07
10
0E
0B
#715000
1"
1#
1&
1A
1D
17
00
1E
1B
#720000
0"
0#
0&
0A
0D
07
10
0E
0B
#725000
1"
1#
1&
1A
1D
17
00
1E
1B
#730000
0"
0#
0&
0A
0D
07
10
0E
0B
#735000
1"
1#
1&
1A
1D
17
00
1E
1B
#740000
0"
0#
0&
0A
0D
07
10
0E
0B
#745000
1"
1#
1&
1A
1D
17
00
1E
1B
#750000
0"
0#
0&
0A
0D
07
10
0E
0B
#755000
1"
1#
1&
1A
1D
17
00
1E
1B
#760000
0"
0#
0&
0A
0D
07
10
0E
0B
#765000
1"
1#
1&
1A
1D
17
00
1E
1B
#770000
0"
0#
0&
0A
0D
07
10
0E
0B
#775000
1"
1#
1&
1A
1D
17
00
1E
1B
#780000
0"
0#
0&
0A
0D
07
10
0E
0B
#785000
1"
1#
1&
1A
1D
17
00
1E
1B
#790000
0"
0#
0&
0A
0D
07
10
0E
0B
#795000
1"
1#
1&
1A
1D
17
00
1E
1B
#800000
0"
0#
0&
0A
0D
07
10
0E
0B
#805000
1"
1#
1&
1A
1D
17
00
1E
1B
#810000
0"
0#
0&
0A
0D
07
10
0E
0B
#815000
1"
1#
1&
1A
1D
17
00
1E
1B
#820000
0"
0#
0&
0A
0D
07
10
0E
0B
#825000
1"
1#
1&
1A
1D
17
00
1E
1B
#830000
0"
0#
0&
0A
0D
07
10
0E
0B
#835000
1"
1#
1&
1A
1D
17
00
1E
1B
#840000
1$
0"
0#
0&
1C
0A
0D
07
10
0E
0B
#845000
1"
1#
1&
1A
1D
17
00
1E
1B
#850000
0"
0#
0&
0A
0D
07
10
0E
0B
#855000
1"
1#
1&
1A
1D
17
00
1E
1B
#860000
0"
0#
0&
0A
0D
07
10
0E
0B
#865000
1"
1#
1&
1A
1D
17
00
1E
1B
#870000
0"
0#
0&
0A
0D
07
10
0E
0B
#875000
1"
1#
1&
1A
1D
17
00
1E
1B
#880000
0"
0#
0&
0A
0D
07
10
0E
0B
#885000
1"
1#
1&
1A
1D
17
00
1E
1B
#890000
0"
0#
0&
0A
0D
07
10
0E
0B
#895000
1"
1#
1&
1A
1D
17
00
1E
1B
#900000
0"
0#
0&
0A
0D
07
10
0E
0B
#905000
1"
1#
1&
1A
1D
17
00
1E
1B
#910000
0"
0#
0&
0A
0D
07
10
0E
0B
#915000
1"
1#
1&
1A
1D
17
00
1E
1B
#920000
0"
0#
0&
0A
0D
07
10
0E
0B
#925000
1"
1#
1&
1A
1D
17
00
1E
1B
#930000
0"
0#
0&
0A
0D
07
10
0E
0B
#935000
1"
1#
1&
1A
1D
17
00
1E
1B
#940000
0!
0"
0#
0&
0K
0A
0D
07
10
0E
0B
0@
1?
0>
0=
0<
0;
0:
09
08
0/
1'
0(
0)
0*
0+
0,
0-
0.
0e
#945000
1"
1#
1&
1A
1D
17
00
1E
1B
0f
0?
0'
#950000
0"
0#
0&
0A
0D
07
10
0E
0B
#955000
1"
1#
1&
1A
1D
17
00
1E
1B
#960000
0"
0#
0&
0A
0D
07
10
0E
0B
#965000
1"
1#
1&
1A
1D
17
00
1E
1B
#970000
0"
0#
0&
0A
0D
07
10
0E
0B
#975000
1"
1#
1&
1A
1D
17
00
1E
1B
#980000
0"
0#
0&
0A
0D
07
10
0E
0B
#985000
1"
1#
1&
1A
1D
17
00
1E
1B
#990000
0"
0#
0&
0A
0D
07
10
0E
0B
#995000
1"
1#
1&
1A
1D
17
00
1E
1B
