frequency_divider_test/simulation/qsim/frequency_divider.msim.vcd
$comment
	File created using the following command:
		vcd file frequency_divider.msim.vcd -direction
$end
$date
	Fri Nov 30 08:25:19 2018
$end
$version
	ModelSim Version 10.3d
$end
$timescale
	1ps
$end

$scope module frequency_divider_top_vlg_vec_tst $end
$var reg 1 ! clk $end
$var wire 1 " clkout $end
$var wire 1 # sampler $end

$scope module i1 $end
$var wire 1 $ gnd $end
$var wire 1 % vcc $end
$var wire 1 & unknown $end
$var tri1 1 ' devclrn $end
$var tri1 1 ( devpor $end
$var tri1 1 ) devoe $end
$var wire 1 * clkout~output_o $end
$var wire 1 + clk~input_o $end
$var wire 1 , clk~inputclkctrl_outclk $end
$var wire 1 - u1|Add0~0_combout $end
$var wire 1 . u1|Add0~1 $end
$var wire 1 / u1|Add0~2_combout $end
$var wire 1 0 u1|cnt~0_combout $end
$var wire 1 1 u1|Add0~3 $end
$var wire 1 2 u1|Add0~4_combout $end
$var wire 1 3 u1|Add0~5 $end
$var wire 1 4 u1|Add0~6_combout $end
$var wire 1 5 u1|Add0~7 $end
$var wire 1 6 u1|Add0~8_combout $end
$var wire 1 7 u1|Add0~9 $end
$var wire 1 8 u1|Add0~10_combout $end
$var wire 1 9 u1|Add0~11 $end
$var wire 1 : u1|Add0~12_combout $end
$var wire 1 ; u1|Add0~13 $end
$var wire 1 < u1|Add0~14_combout $end
$var wire 1 = u1|Add0~15 $end
$var wire 1 > u1|Add0~16_combout $end
$var wire 1 ? u1|Add0~17 $end
$var wire 1 @ u1|Add0~18_combout $end
$var wire 1 A u1|Add0~19 $end
$var wire 1 B u1|Add0~20_combout $end
$var wire 1 C u1|Add0~21 $end
$var wire 1 D u1|Add0~22_combout $end
$var wire 1 E u1|Add0~23 $end
$var wire 1 F u1|Add0~24_combout $end
$var wire 1 G u1|Add0~25 $end
$var wire 1 H u1|Add0~26_combout $end
$var wire 1 I u1|Add0~27 $end
$var wire 1 J u1|Add0~28_combout $end
$var wire 1 K u1|Add0~29 $end
$var wire 1 L u1|Add0~30_combout $end
$var wire 1 M u1|Add0~31 $end
$var wire 1 N u1|Add0~32_combout $end
$var wire 1 O u1|Add0~33 $end
$var wire 1 P u1|Add0~34_combout $end
$var wire 1 Q u1|Add0~35 $end
$var wire 1 R u1|Add0~36_combout $end
$var wire 1 S u1|Add0~37 $end
$var wire 1 T u1|Add0~38_combout $end
$var wire 1 U u1|Add0~39 $end
$var wire 1 V u1|Add0~40_combout $end
$var wire 1 W u1|Add0~41 $end
$var wire 1 X u1|Add0~42_combout $end
$var wire 1 Y u1|Add0~43 $end
$var wire 1 Z u1|Add0~44_combout $end
$var wire 1 [ u1|Add0~45 $end
$var wire 1 \ u1|Add0~46_combout $end
$var wire 1 ] u1|Add0~47 $end
$var wire 1 ^ u1|Add0~48_combout $end
$var wire 1 _ u1|Add0~49 $end
$var wire 1 ` u1|Add0~50_combout $end
$var wire 1 a u1|Add0~51 $end
$var wire 1 b u1|Add0~52_combout $end
$var wire 1 c u1|Add0~53 $end
$var wire 1 d u1|Add0~54_combout $end
$var wire 1 e u1|Equal0~7_combout $end
$var wire 1 f u1|Equal0~5_combout $end
$var wire 1 g u1|Equal0~6_combout $end
$var wire 1 h u1|Equal0~2_combout $end
$var wire 1 i u1|Equal0~1_combout $end
$var wire 1 j u1|Equal0~0_combout $end
$var wire 1 k u1|Equal0~3_combout $end
$var wire 1 l u1|Equal0~4_combout $end
$var wire 1 m u1|Equal0~8_combout $end
$var wire 1 n u1|clkout~0_combout $end
$var wire 1 o u1|clkout~q $end
$var wire 1 p u1|cnt [27] $end
$var wire 1 q u1|cnt [26] $end
$var wire 1 r u1|cnt [25] $end
$var wire 1 s u1|cnt [24] $end
$var wire 1 t u1|cnt [23] $end
$var wire 1 u u1|cnt [22] $end
$var wire 1 v u1|cnt [21] $end
$var wire 1 w u1|cnt [20] $end
$var wire 1 x u1|cnt [19] $end
$var wire 1 y u1|cnt [18] $end
$var wire 1 z u1|cnt [17] $end
$var wire 1 { u1|cnt [16] $end
$var wire 1 | u1|cnt [15] $end
$var wire 1 } u1|cnt [14] $end
$var wire 1 ~ u1|cnt [13] $end
$var wire 1 !! u1|cnt [12] $end
$var wire 1 "! u1|cnt [11] $end
$var wire 1 #! u1|cnt [10] $end
$var wire 1 $! u1|cnt [9] $end
$var wire 1 %! u1|cnt [8] $end
$var wire 1 &! u1|cnt [7] $end
$var wire 1 '! u1|cnt [6] $end
$var wire 1 (! u1|cnt [5] $end
$var wire 1 )! u1|cnt [4] $end
$var wire 1 *! u1|cnt [3] $end
$var wire 1 +! u1|cnt [2] $end
$var wire 1 ,! u1|cnt [1] $end
$var wire 1 -! u1|cnt [0] $end
$upscope $end
$upscope $end
$enddefinitions $end
#0
$dumpvars
0!
0"
x#
0$
1%
x&
1'
1(
1)
0*
0+
0,
1-
0.
0/
00
11
02
03
04
15
06
07
08
19
0:
0;
0<
1=
0>
0?
0@
1A
0B
0C
0D
1E
0F
0G
0H
1I
0J
0K
0L
1M
0N
0O
0P
1Q
0R
0S
0T
1U
0V
0W
0X
1Y
0Z
0[
0\
1]
0^
0_
0`
1a
0b
0c
0d
1e
1f
1g
1h
1i
0j
1k
0l
0m
0n
0o
0-!
0,!
0+!
0*!
0)!
0(!
0'!
0&!
0%!
0$!
0#!
0"!
0!!
0~
0}
0|
0{
0z
0y
0x
0w
0v
0u
0t
0s
0r
0q
0p
$end
#10000
1!
1+
0#
1,
1-!
1j
1.
0-
1l
1/
1m
10
1n
00
#20000
0!
0+
1#
0,
#30000
1!
1+
0#
1,
0-!
1o
1*
0j
0.
1"
1-
0n
0l
0/
0m
1n
#40000
0!
0+
1#
0,
#50000
1!
1+
0#
1,
1-!
1j
1.
0-
1l
1/
1m
10
0n
00
#60000
0!
0+
1#
0,
#70000
1!
1+
0#
1,
0-!
0o
0*
0j
0.
0"
1-
1n
0l
0/
0m
0n
#80000
0!
0+
1#
0,
#90000
1!
1+
0#
1,
1-!
1j
1.
0-
1l
1/
1m
10
1n
00
#100000
0!
0+
1#
0,
#110000
1!
1+
0#
1,
0-!
1o
1*
0j
0.
1"
1-
0n
0l
0/
0m
1n
#120000
0!
0+
1#
0,
#130000
1!
1+
0#
1,
1-!
1j
1.
0-
1l
1/
1m
10
0n
00
#140000
0!
0+
1#
0,
#150000
1!
1+
0#
1,
0-!
0o
0*
0j
0.
0"
1-
1n
0l
0/
0m
0n
#160000
0!
0+
1#
0,
#170000
1!
1+
0#
1,
1-!
1j
1.
0-
1l
1/
1m
10
1n
00
#180000
0!
0+
1#
0,
#190000
1!
1+
0#
1,
0-!
1o
1*
0j
0.
1"
1-
0n
0l
0/
0m
1n
#200000
0!
0+
1#
0,
#210000
1!
1+
0#
1,
1-!
1j
1.
0-
1l
1/
1m
10
0n
00
#220000
0!
0+
1#
0,
#230000
1!
1+
0#
1,
0-!
0o
0*
0j
0.
0"
1-
1n
0l
0/
0m
0n
#240000
0!
0+
1#
0,
#250000
1!
1+
0#
1,
1-!
1j
1.
0-
1l
1/
1m
10
1n
00
#260000
0!
0+
1#
0,
#270000
1!
1+
0#
1,
0-!
1o
1*
0j
0.
1"
1-
0n
0l
0/
0m
1n
#280000
0!
0+
1#
0,
#290000
1!
1+
0#
1,
1-!
1j
1.
0-
1l
1/
1m
10
0n
00
#300000
0!
0+
1#
0,
#310000
1!
1+
0#
1,
0-!
0o
0*
0j
0.
0"
1-
1n
0l
0/
0m
0n
#320000
0!
0+
1#
0,
#330000
1!
1+
0#
1,
1-!
1j
1.
0-
1l
1/
1m
10
1n
00
#340000
0!
0+
1#
0,
#350000
1!
1+
0#
1,
0-!
1o
1*
0j
0.
1"
1-
0n
0l
0/
0m
1n
#360000
0!
0+
1#
0,
#370000
1!
1+
0#
1,
1-!
1j
1.
0-
1l
1/
1m
10
0n
00
#380000
0!
0+
1#
0,
#390000
1!
1+
0#
1,
0-!
0o
0*
0j
0.
0"
1-
1n
0l
0/
0m
0n
#400000
0!
0+
1#
0,
#410000
1!
1+
0#
1,
1-!
1j
1.
0-
1l
1/
1m
10
1n
00
#420000
0!
0+
1#
0,
#430000
1!
1+
0#
1,
0-!
1o
1*
0j
0.
1"
1-
0n
0l
0/
0m
1n
#440000
0!
0+
1#
0,
#450000
1!
1+
0#
1,
1-!
1j
1.
0-
1l
1/
1m
10
0n
00
#460000
0!
0+
1#
0,
#470000
1!
1+
0#
1,
0-!
0o
0*
0j
0.
0"
1-
1n
0l
0/
0m
0n
#480000
0!
0+
1#
0,
#490000
1!
1+
0#
1,
1-!
1j
1.
0-
1l
1/
1m
10
1n
00
#500000
0!
0+
1#
0,
#510000
1!
1+
0#
1,
0-!
1o
1*
0j
0.
1"
1-
0n
0l
0/
0m
1n
#520000
0!
0+
1#
0,
#530000
1!
1+
0#
1,
1-!
1j
1.
0-
1l
1/
1m
10
0n
00
#540000
0!
0+
1#
0,
#550000
1!
1+
0#
1,
0-!
0o
0*
0j
0.
0"
1-
1n
0l
0/
0m
0n
#560000
0!
0+
1#
0,
#570000
1!
1+
0#
1,
1-!
1j
1.
0-
1l
1/
1m
10
1n
00
#580000
0!
0+
1#
0,
#590000
1!
1+
0#
1,
0-!
1o
1*
0j
0.
1"
1-
0n
0l
0/
0m
1n
#600000
0!
0+
1#
0,
#610000
1!
1+
0#
1,
1-!
1j
1.
0-
1l
1/
1m
10
0n
00
#620000
0!
0+
1#
0,
#630000
1!
1+
0#
1,
0-!
0o
0*
0j
0.
0"
1-
1n
0l
0/
0m
0n
#640000
0!
0+
1#
0,
#650000
1!
1+
0#
1,
1-!
1j
1.
0-
1l
1/
1m
10
1n
00
#660000
0!
0+
1#
0,
#670000
1!
1+
0#
1,
0-!
1o
1*
0j
0.
1"
1-
0n
0l
0/
0m
1n
#680000
0!
0+
1#
0,
#690000
1!
1+
0#
1,
1-!
1j
1.
0-
1l
1/
1m
10
0n
00
#700000
0!
0+
1#
0,
#710000
1!
1+
0#
1,
0-!
0o
0*
0j
0.
0"
1-
1n
0l
0/
0m
0n
#720000
0!
0+
1#
0,
#730000
1!
1+
0#
1,
1-!
1j
1.
0-
1l
1/
1m
10
1n
00
#740000
0!
0+
1#
0,
#750000
1!
1+
0#
1,
0-!
1o
1*
0j
0.
1"
1-
0n
0l
0/
0m
1n
#760000
0!
0+
1#
0,
#770000
1!
1+
0#
1,
1-!
1j
1.
0-
1l
1/
1m
10
0n
00
#780000
0!
0+
1#
0,
#790000
1!
1+
0#
1,
0-!
0o
0*
0j
0.
0"
1-
1n
0l
0/
0m
0n
#800000
0!
0+
1#
0,
#810000
1!
1+
0#
1,
1-!
1j
1.
0-
1l
1/
1m
10
1n
00
#820000
0!
0+
1#
0,
#830000
1!
1+
0#
1,
0-!
1o
1*
0j
0.
1"
1-
0n
0l
0/
0m
1n
#840000
0!
0+
1#
0,
#850000
1!
1+
0#
1,
1-!
1j
1.
0-
1l
1/
1m
10
0n
00
#860000
0!
0+
1#
0,
#870000
1!
1+
0#
1,
0-!
0o
0*
0j
0.
0"
1-
1n
0l
0/
0m
0n
#880000
0!
0+
1#
0,
#890000
1!
1+
0#
1,
1-!
1j
1.
0-
1l
1/
1m
10
1n
00
#900000
0!
0+
1#
0,
#910000
1!
1+
0#
1,
0-!
1o
1*
0j
0.
1"
1-
0n
0l
0/
0m
1n
#920000
0!
0+
1#
0,
#930000
1!
1+
0#
1,
1-!
1j
1.
0-
1l
1/
1m
10
0n
00
#940000
0!
0+
1#
0,
#950000
1!
1+
0#
1,
0-!
0o
0*
0j
0.
0"
1-
1n
0l
0/
0m
0n
#960000
0!
0+
1#
0,
#970000
1!
1+
0#
1,
1-!
1j
1.
0-
1l
1/
1m
10
1n
00
#980000
0!
0+
1#
0,
#990000
1!
1+
0#
1,
0-!
1o
1*
0j
0.
1"
1-
0n
0l
0/
0m
1n
#1000000
0!
0+
1#
0,
#1010000
1!
1+
0#
1,
1-!
1j
1.
0-
1l
1/
1m
10
0n
00
#1020000
0!
0+
1#
0,
#1030000
1!
1+
0#
1,
0-!
0o
0*
0j
0.
0"
1-
1n
0l
0/
0m
0n
#1040000
0!
0+
1#
0,
#1050000
1!
1+
0#
1,
1-!
1j
1.
0-
1l
1/
1m
10
1n
00
#1060000
0!
0+
1#
0,
#1070000
1!
1+
0#
1,
0-!
1o
1*
0j
0.
1"
1-
0n
0l
0/
0m
1n
#1080000
0!
0+
1#
0,
#1090000
1!
1+
0#
1,
1-!
1j
1.
0-
1l
1/
1m
10
0n
00
#1100000
0!
0+
1#
0,
#1110000
1!
1+
0#
1,
0-!
0o
0*
0j
0.
0"
1-
1n
0l
0/
0m
0n
#1120000
0!
0+
1#
0,
#1130000
1!
1+
0#
1,
1-!
1j
1.
0-
1l
1/
1m
10
1n
00
#1140000
0!
0+
1#
0,
#1150000
1!
1+
0#
1,
0-!
1o
1*
0j
0.
1"
1-
0n
0l
0/
0m
1n
#1160000
0!
0+
1#
0,
#1170000
1!
1+
0#
1,
1-!
1j
1.
0-
1l
1/
1m
10
0n
00
#1180000
0!
0+
1#
0,
#1190000
1!
1+
0#
1,
0-!
0o
0*
0j
0.
0"
1-
1n
0l
0/
0m
0n
#1200000
0!
0+
1#
0,
#1210000
1!
1+
0#
1,
1-!
1j
1.
0-
1l
1/
1m
10
1n
00
#1220000
0!
0+
1#
0,
#1230000
1!
1+
0#
1,
0-!
1o
1*
0j
0.
1"
1-
0n
0l
0/
0m
1n
#1240000
0!
0+
1#
0,
#1250000
1!
1+
0#
1,
1-!
1j
1.
0-
1l
1/
1m
10
0n
00
#1260000
0!
0+
1#
0,
#1270000
1!
1+
0#
1,
0-!
0o
0*
0j
0.
0"
1-
1n
0l
0/
0m
0n
#1280000
0!
0+
1#
0,
#1290000
1!
1+
0#
1,
1-!
1j
1.
0-
1l
1/
1m
10
1n
00
#1300000
0!
0+
1#
0,
#1310000
1!
1+
0#
1,
0-!
1o
1*
0j
0.
1"
1-
0n
0l
0/
0m
1n
#1320000
0!
0+
1#
0,
#1330000
1!
1+
0#
1,
1-!
1j
1.
0-
1l
1/
1m
10
0n
00
#1340000
0!
0+
1#
0,
#1350000
1!
1+
0#
1,
0-!
0o
0*
0j
0.
0"
1-
1n
0l
0/
0m
0n
#1360000
0!
0+
1#
0,
#1370000
1!
1+
0#
1,
1-!
1j
1.
0-
1l
1/
1m
10
1n
00
#1380000
0!
0+
1#
0,
#1390000
1!
1+
0#
1,
0-!
1o
1*
0j
0.
1"
1-
0n
0l
0/
0m
1n
#1400000
0!
0+
1#
0,
#1410000
1!
1+
0#
1,
1-!
1j
1.
0-
1l
1/
1m
10
0n
00
#1420000
0!
0+
1#
0,
#1430000
1!
1+
0#
1,
0-!
0o
0*
0j
0.
0"
1-
1n
0l
0/
0m
0n
#1440000
0!
0+
1#
0,
#1450000
1!
1+
0#
1,
1-!
1j
1.
0-
1l
1/
1m
10
1n
00
#1460000
0!
0+
1#
0,
#1470000
1!
1+
0#
1,
0-!
1o
1*
0j
0.
1"
1-
0n
0l
0/
0m
1n
#1480000
0!
0+
1#
0,
#1490000
1!
1+
0#
1,
1-!
1j
1.
0-
1l
1/
1m
10
0n
00
#1500000
0!
0+
1#
0,
#1510000
1!
1+
0#
1,
0-!
0o
0*
0j
0.
0"
1-
1n
0l
0/
0m
0n
#1520000
0!
0+
1#
0,
#1530000
1!
1+
0#
1,
1-!
1j
1.
0-
1l
1/
1m
10
1n
00
#1540000
0!
0+
1#
0,
#1550000
1!
1+
0#
1,
0-!
1o
1*
0j
0.
1"
1-
0n
0l
0/
0m
1n
#1560000
0!
0+
1#
0,
#1570000
1!
1+
0#
1,
1-!
1j
1.
0-
1l
1/
1m
10
0n
00
#1580000
0!
0+
1#
0,
#1590000
1!
1+
0#
1,
0-!
0o
0*
0j
0.
0"
1-
1n
0l
0/
0m
0n
#1600000
0!
0+
1#
0,
#1610000
1!
1+
0#
1,
1-!
1j
1.
0-
1l
1/
1m
10
1n
00
#1620000
0!
0+
1#
0,
#1630000
1!
1+
0#
1,
0-!
1o
1*
0j
0.
1"
1-
0n
0l
0/
0m
1n
#1640000
0!
0+
1#
0,
#1650000
1!
1+
0#
1,
1-!
1j
1.
0-
1l
1/
1m
10
0n
00
#1660000
0!
0+
1#
0,
#1670000
1!
1+
0#
1,
0-!
0o
0*
0j
0.
0"
1-
1n
0l
0/
0m
0n
#1680000
0!
0+
1#
0,
#1690000
1!
1+
0#
1,
1-!
1j
1.
0-
1l
1/
1m
10
1n
00
#1700000
0!
0+
1#
0,
#1710000
1!
1+
0#
1,
0-!
1o
1*
0j
0.
1"
1-
0n
0l
0/
0m
1n
#1720000
0!
0+
1#
0,
#1730000
1!
1+
0#
1,
1-!
1j
1.
0-
1l
1/
1m
10
0n
00
#1740000
0!
0+
1#
0,
#1750000
1!
1+
0#
1,
0-!
0o
0*
0j
0.
0"
1-
1n
0l
0/
0m
0n
#1760000
0!
0+
1#
0,
#1770000
1!
1+
0#
1,
1-!
1j
1.
0-
1l
1/
1m
10
1n
00
#1780000
0!
0+
1#
0,
#1790000
1!
1+
0#
1,
0-!
1o
1*
0j
0.
1"
1-
0n
0l
0/
0m
1n
#1800000
0!
0+
1#
0,
#1810000
1!
1+
0#
1,
1-!
1j
1.
0-
1l
1/
1m
10
0n
00
#1820000
0!
0+
1#
0,
#1830000
1!
1+
0#
1,
0-!
0o
0*
0j
0.
0"
1-
1n
0l
0/
0m
0n
#1840000
0!
0+
1#
0,
#1850000
1!
1+
0#
1,
1-!
1j
1.
0-
1l
1/
1m
10
1n
00
#1860000
0!
0+
1#
0,
#1870000
1!
1+
0#
1,
0-!
1o
1*
0j
0.
1"
1-
0n
0l
0/
0m
1n
#1880000
0!
0+
1#
0,
#1890000
1!
1+
0#
1,
1-!
1j
1.
0-
1l
1/
1m
10
0n
00
#1900000
0!
0+
1#
0,
#1910000
1!
1+
0#
1,
0-!
0o
0*
0j
0.
0"
1-
1n
0l
0/
0m
0n
#1920000
0!
0+
1#
0,
#1930000
1!
1+
0#
1,
1-!
1j
1.
0-
1l
1/
1m
10
1n
00
#1940000
0!
0+
1#
0,
#1950000
1!
1+
0#
1,
0-!
1o
1*
0j
0.
1"
1-
0n
0l
0/
0m
1n
#1960000
0!
0+
1#
0,
#1970000
1!
1+
0#
1,
1-!
1j
1.
0-
1l
1/
1m
10
0n
00
#1980000
0!
0+
1#
0,
#1990000
1!
1+
0#
1,
0-!
0o
0*
0j
0.
0"
1-
1n
0l
0/
0m
0n
#2000000
0!
0+
1#
0,
#2010000
1!
1+
0#
1,
1-!
1j
1.
0-
1l
1/
1m
10
1n
00
#2020000
0!
0+
1#
0,
#2030000
1!
1+
0#
1,
0-!
1o
1*
0j
0.
1"
1-
0n
0l
0/
0m
1n
#2040000
0!
0+
1#
0,
#2050000
1!
1+
0#
1,
1-!
1j
1.
0-
1l
1/
1m
10
0n
00
#2060000
0!
0+
1#
0,
#2070000
1!
1+
0#
1,
0-!
0o
0*
0j
0.
0"
1-
1n
0l
0/
0m
0n
#2080000
0!
0+
1#
0,
#2090000
1!
1+
0#
1,
1-!
1j
1.
0-
1l
1/
1m
10
1n
00
#2100000
0!
0+
1#
0,
#2110000
1!
1+
0#
1,
0-!
1o
1*
0j
0.
1"
1-
0n
0l
0/
0m
1n
#2120000
0!
0+
1#
0,
#2130000
1!
1+
0#
1,
1-!
1j
1.
0-
1l
1/
1m
10
0n
00
#2140000
0!
0+
1#
0,
#2150000
1!
1+
0#
1,
0-!
0o
0*
0j
0.
0"
1-
1n
0l
0/
0m
0n
#2160000
0!
0+
1#
0,
#2170000
1!
1+
0#
1,
1-!
1j
1.
0-
1l
1/
1m
10
1n
00
#2180000
0!
0+
1#
0,
#2190000
1!
1+
0#
1,
0-!
1o
1*
0j
0.
1"
1-
0n
0l
0/
0m
1n
#2200000
0!
0+
1#
0,
#2210000
1!
1+
0#
1,
1-!
1j
1.
0-
1l
1/
1m
10
0n
00
#2220000
0!
0+
1#
0,
#2230000
1!
1+
0#
1,
0-!
0o
0*
0j
0.
0"
1-
1n
0l
0/
0m
0n
#2240000
0!
0+
1#
0,
#2250000
1!
1+
0#
1,
1-!
1j
1.
0-
1l
1/
1m
10
1n
00
#2260000
0!
0+
1#
0,
#2270000
1!
1+
0#
1,
0-!
1o
1*
0j
0.
1"
1-
0n
0l
0/
0m
1n
#2280000
0!
0+
1#
0,
#2290000
1!
1+
0#
1,
1-!
1j
1.
0-
1l
1/
1m
10
0n
00
#2300000
0!
0+
1#
0,
#2310000
1!
1+
0#
1,
0-!
0o
0*
0j
0.
0"
1-
1n
0l
0/
0m
0n
#2320000
0!
0+
1#
0,
#2330000
1!
1+
0#
1,
1-!
1j
1.
0-
1l
1/
1m
10
1n
00
#2340000
0!
0+
1#
0,
#2350000
1!
1+
0#
1,
0-!
1o
1*
0j
0.
1"
1-
0n
0l
0/
0m
1n
#2360000
0!
0+
1#
0,
#2370000
1!
1+
0#
1,
1-!
1j
1.
0-
1l
1/
1m
10
0n
00
#2380000
0!
0+
1#
0,
#2390000
1!
1+
0#
1,
0-!
0o
0*
0j
0.
0"
1-
1n
0l
0/
0m
0n
#2400000
0!
0+
1#
0,
#2410000
1!
1+
0#
1,
1-!
1j
1.
0-
1l
1/
1m
10
1n
00
#2420000
0!
0+
1#
0,
#2430000
1!
1+
0#
1,
0-!
1o
1*
0j
0.
1"
1-
0n
0l
0/
0m
1n
#2440000
0!
0+
1#
0,
#2450000
1!
1+
0#
1,
1-!
1j
1.
0-
1l
1/
1m
10
0n
00
#2460000
0!
0+
1#
0,
#2470000
1!
1+
0#
1,
0-!
0o
0*
0j
0.
0"
1-
1n
0l
0/
0m
0n
#2480000
0!
0+
1#
0,
#2490000
1!
1+
0#
1,
1-!
1j
1.
0-
1l
1/
1m
10
1n
00
#2500000
0!
0+
1#
0,
#2510000
1!
1+
0#
1,
0-!
1o
1*
0j
0.
1"
1-
0n
0l
0/
0m
1n
#2520000
0!
0+
1#
0,
#2530000
1!
1+
0#
1,
1-!
1j
1.
0-
1l
1/
1m
10
0n
00
#2540000
0!
0+
1#
0,
#2550000
1!
1+
0#
1,
0-!
0o
0*
0j
0.
0"
1-
1n
0l
0/
0m
0n
#2560000
0!
0+
1#
0,
#2570000
1!
1+
0#
1,
1-!
1j
1.
0-
1l
1/
1m
10
1n
00
#2580000
0!
0+
1#
0,
#2590000
1!
1+
0#
1,
0-!
1o
1*
0j
0.
1"
1-
0n
0l
0/
0m
1n
#2600000
0!
0+
1#
0,
#2610000
1!
1+
0#
1,
1-!
1j
1.
0-
1l
1/
1m
10
0n
00
#2620000
0!
0+
1#
0,
#2630000
1!
1+
0#
1,
0-!
0o
0*
0j
0.
0"
1-
1n
0l
0/
0m
0n
#2640000
0!
0+
1#
0,
#2650000
1!
1+
0#
1,
1-!
1j
1.
0-
1l
1/
1m
10
1n
00
#2660000
0!
0+
1#
0,
#2670000
1!
1+
0#
1,
0-!
1o
1*
0j
0.
1"
1-
0n
0l
0/
0m
1n
#2680000
0!
0+
1#
0,
#2690000
1!
1+
0#
1,
1-!
1j
1.
0-
1l
1/
1m
10
0n
00
#2700000
0!
0+
1#
0,
#2710000
1!
1+
0#
1,
0-!
0o
0*
0j
0.
0"
1-
1n
0l
0/
0m
0n
#2720000
0!
0+
1#
0,
#2730000
1!
1+
0#
1,
1-!
1j
1.
0-
1l
1/
1m
10
1n
00
#2740000
0!
0+
1#
0,
#2750000
1!
1+
0#
1,
0-!
1o
1*
0j
0.
1"
1-
0n
0l
0/
0m
1n
#2760000
0!
0+
1#
0,
#2770000
1!
1+
0#
1,
1-!
1j
1.
0-
1l
1/
1m
10
0n
00
#2780000
0!
0+
1#
0,
#2790000
1!
1+
0#
1,
0-!
0o
0*
0j
0.
0"
1-
1n
0l
0/
0m
0n
#2800000
0!
0+
1#
0,
#2810000
1!
1+
0#
1,
1-!
1j
1.
0-
1l
1/
1m
10
1n
00
#2820000
0!
0+
1#
0,
#2830000
1!
1+
0#
1,
0-!
1o
1*
0j
0.
1"
1-
0n
0l
0/
0m
1n
#2840000
0!
0+
1#
0,
#2850000
1!
1+
0#
1,
1-!
1j
1.
0-
1l
1/
1m
10
0n
00
#2860000
0!
0+
1#
0,
#2870000
1!
1+
0#
1,
0-!
0o
0*
0j
0.
0"
1-
1n
0l
0/
0m
0n
#2880000
0!
0+
1#
0,
#2890000
1!
1+
0#
1,
1-!
1j
1.
0-
1l
1/
1m
10
1n
00
#2900000
0!
0+
1#
0,
#2910000
1!
1+
0#
1,
0-!
1o
1*
0j
0.
1"
1-
0n
0l
0/
0m
1n
#2920000
0!
0+
1#
0,
#2930000
1!
1+
0#
1,
1-!
1j
1.
0-
1l
1/
1m
10
0n
00
#2940000
0!
0+
1#
0,
#2950000
1!
1+
0#
1,
0-!
0o
0*
0j
0.
0"
1-
1n
0l
0/
0m
0n
#2960000
0!
0+
1#
0,
#2970000
1!
1+
0#
1,
1-!
1j
1.
0-
1l
1/
1m
10
1n
00
#2980000
0!
0+
1#
0,
#2990000
1!
1+
0#
1,
0-!
1o
1*
0j
0.
1"
1-
0n
0l
0/
0m
1n
#3000000
0!
0+
1#
0,
#3010000
1!
1+
0#
1,
1-!
1j
1.
0-
1l
1/
1m
10
0n
00
#3020000
0!
0+
1#
0,
#3030000
1!
1+
0#
1,
0-!
0o
0*
0j
0.
0"
1-
1n
0l
0/
0m
0n
#3040000
0!
0+
1#
0,
#3050000
1!
1+
0#
1,
1-!
1j
1.
0-
1l
1/
1m
10
1n
00
#3060000
0!
0+
1#
0,
#3070000
1!
1+
0#
1,
0-!
1o
1*
0j
0.
1"
1-
0n
0l
0/
0m
1n
#3080000
0!
0+
1#
0,
#3090000
1!
1+
0#
1,
1-!
1j
1.
0-
1l
1/
1m
10
0n
00
#3100000
0!
0+
1#
0,
#3110000
1!
1+
0#
1,
0-!
0o
0*
0j
0.
0"
1-
1n
0l
0/
0m
0n
#3120000
0!
0+
1#
0,
#3130000
1!
1+
0#
1,
1-!
1j
1.
0-
1l
1/
1m
10
1n
00
#3140000
0!
0+
1#
0,
#3150000
1!
1+
0#
1,
0-!
1o
1*
0j
0.
1"
1-
0n
0l
0/
0m
1n
#3160000
0!
0+
1#
0,
#3170000
1!
1+
0#
1,
1-!
1j
1.
0-
1l
1/
1m
10
0n
00
#3180000
0!
0+
1#
0,
#3190000
1!
1+
0#
1,
0-!
0o
0*
0j
0.
0"
1-
1n
0l
0/
0m
0n
#3200000
0!
0+
1#
0,
#3210000
1!
1+
0#
1,
1-!
1j
1.
0-
1l
1/
1m
10
1n
00
#3220000
0!
0+
1#
0,
#3230000
1!
1+
0#
1,
0-!
1o
1*
0j
0.
1"
1-
0n
0l
0/
0m
1n
#3240000
0!
0+
1#
0,
#3250000
1!
1+
0#
1,
1-!
1j
1.
0-
1l
1/
1m
10
0n
00
#3260000
0!
0+
1#
0,
#3270000
1!
1+
0#
1,
0-!
0o
0*
0j
0.
0"
1-
1n
0l
0/
0m
0n
#3280000
0!
0+
1#
0,
#3290000
1!
1+
0#
1,
1-!
1j
1.
0-
1l
1/
1m
10
1n
00
#3300000
0!
0+
1#
0,
#3310000
1!
1+
0#
1,
0-!
1o
1*
0j
0.
1"
1-
0n
0l
0/
0m
1n
#3320000
0!
0+
1#
0,
#3330000
1!
1+
0#
1,
1-!
1j
1.
0-
1l
1/
1m
10
0n
00
#3340000
0!
0+
1#
0,
#3350000
1!
1+
0#
1,
0-!
0o
0*
0j
0.
0"
1-
1n
0l
0/
0m
0n
#3360000
0!
0+
1#
0,
#3370000
1!
1+
0#
1,
1-!
1j
1.
0-
1l
1/
1m
10
1n
00
#3380000
0!
0+
1#
0,
#3390000
1!
1+
0#
1,
0-!
1o
1*
0j
0.
1"
1-
0n
0l
0/
0m
1n
#3400000
0!
0+
1#
0,
#3410000
1!
1+
0#
1,
1-!
1j
1.
0-
1l
1/
1m
10
0n
00
#3420000
0!
0+
1#
0,
#3430000
1!
1+
0#
1,
0-!
0o
0*
0j
0.
0"
1-
1n
0l
0/
0m
0n
#3440000
0!
0+
1#
0,
#3450000
1!
1+
0#
1,
1-!
1j
1.
0-
1l
1/
1m
10
1n
00
#3460000
0!
0+
1#
0,
#3470000
1!
1+
0#
1,
0-!
1o
1*
0j
0.
1"
1-
0n
0l
0/
0m
1n
#3480000
0!
0+
1#
0,
#3490000
1!
1+
0#
1,
1-!
1j
1.
0-
1l
1/
1m
10
0n
00
#3500000
0!
0+
1#
0,
#3510000
1!
1+
0#
1,
0-!
0o
0*
0j
0.
0"
1-
1n
0l
0/
0m
0n
#3520000
0!
0+
1#
0,
#3530000
1!
1+
0#
1,
1-!
1j
1.
0-
1l
1/
1m
10
1n
00
#3540000
0!
0+
1#
0,
#3550000
1!
1+
0#
1,
0-!
1o
1*
0j
0.
1"
1-
0n
0l
0/
0m
1n
#3560000
0!
0+
1#
0,
#3570000
1!
1+
0#
1,
1-!
1j
1.
0-
1l
1/
1m
10
0n
00
#3580000
0!
0+
1#
0,
#3590000
1!
1+
0#
1,
0-!
0o
0*
0j
0.
0"
1-
1n
0l
0/
0m
0n
#3600000
0!
0+
1#
0,
#3610000
1!
1+
0#
1,
1-!
1j
1.
0-
1l
1/
1m
10
1n
00
#3620000
0!
0+
1#
0,
#3630000
1!
1+
0#
1,
0-!
1o
1*
0j
0.
1"
1-
0n
0l
0/
0m
1n
#3640000
0!
0+
1#
0,
#3650000
1!
1+
0#
1,
1-!
1j
1.
0-
1l
1/
1m
10
0n
00
#3660000
0!
0+
1#
0,
#3670000
1!
1+
0#
1,
0-!
0o
0*
0j
0.
0"
1-
1n
0l
0/
0m
0n
#3680000
0!
0+
1#
0,
