JK_flip_flop/simulation/qsim/JK_flip_flop_test.msim.vcd
$comment
	File created using the following command:
		vcd file JK_flip_flop_test.msim.vcd -direction
$end
$date
	Sat Dec 01 20:38:32 2018
$end
$version
	ModelSim Version 10.3d
$end
$timescale
	1ps
$end

$scope module JK_flip_flop_test_vlg_vec_tst $end
$var reg 1 ! J $end
$var reg 1 " K $end
$var reg 1 # RD $end
$var reg 1 $ SD $end
$var reg 1 % clk $end
$var reg 1 & rst $end
$var wire 1 ' Q $end
$var wire 1 ( Q_ $end
$var wire 1 ) sampler $end

$scope module i1 $end
$var wire 1 * gnd $end
$var wire 1 + vcc $end
$var wire 1 , unknown $end
$var tri1 1 - devclrn $end
$var tri1 1 . devpor $end
$var tri1 1 / devoe $end
$var wire 1 0 rst~input_o $end
$var wire 1 1 Q~output_o $end
$var wire 1 2 Q_~output_o $end
$var wire 1 3 clk~input_o $end
$var wire 1 4 J~input_o $end
$var wire 1 5 K~input_o $end
$var wire 1 6 u_JK|u_JK_part1|Q~0_combout $end
$var wire 1 7 u_JK|u_JK_part1|Q~q $end
$var wire 1 8 SD~input_o $end
$var wire 1 9 RD~input_o $end
$var wire 1 : u_JK|Q~2_combout $end
$var wire 1 ; u_JK|Q~3_combout $end
$var wire 1 < u_JK|Q~1_combout $end
$upscope $end
$upscope $end
$enddefinitions $end
#0
$dumpvars
0!
0"
0#
0$
0%
0&
z'
0(
x)
0*
1+
x,
1-
1.
1/
00
z1
02
03
04
05
06
07
08
09
0:
0;
1<
$end
#10000
1%
13
0)
#20000
0%
03
1)
#30000
1%
13
0)
#40000
0%
03
1)
#50000
1%
13
0)
#60000
0%
03
1)
#70000
1%
13
0)
#80000
0%
03
1)
#90000
1%
13
0)
#100000
0%
03
1)
#110000
1%
13
0)
#120000
0%
03
1)
#130000
1%
13
0)
#140000
0%
03
1)
#150000
1%
13
0)
#160000
0%
03
1)
#170000
1%
13
0)
#180000
0%
03
1)
#190000
1%
13
0)
#200000
0%
03
1)
#210000
1%
13
0)
#220000
0%
03
1)
#230000
1%
13
0)
#240000
0%
03
1)
#250000
1%
13
0)
#260000
0%
03
1)
#270000
1%
13
0)
#280000
0%
03
1)
#290000
1%
13
0)
#300000
0%
03
1)
#310000
1%
13
0)
#320000
0%
03
1)
#330000
1%
13
0)
#340000
0%
03
1)
#350000
1%
13
0)
#360000
0%
03
1)
#370000
1%
13
0)
#380000
0%
03
1)
#390000
1%
13
0)
#400000
0%
03
1)
#410000
1%
13
0)
#420000
0%
03
1)
#430000
1%
13
0)
#440000
0%
03
1)
#450000
1%
13
0)
#460000
0%
03
1)
#470000
1%
13
0)
#480000
0%
03
1)
#490000
1%
13
0)
#500000
1!
1"
1#
1$
0%
14
15
19
18
03
1)
0<
16
1;
01
12
0'
1(
#510000
1%
13
0)
#520000
0%
03
1)
17
1<
1:
06
11
02
1'
0(
#530000
1%
13
0)
#540000
0%
03
1)
07
0<
0:
16
01
12
0'
1(
#550000
1%
13
0)
#560000
0%
03
1)
17
1<
1:
06
11
02
1'
0(
#570000
1%
13
0)
#580000
0%
03
1)
07
0<
0:
16
01
12
0'
1(
#590000
1%
13
0)
#600000
0%
03
1)
17
1<
1:
06
11
02
1'
0(
#610000
1%
13
0)
#620000
0%
03
1)
07
0<
0:
16
01
12
0'
1(
#630000
1%
13
0)
#640000
0%
03
1)
17
1<
1:
06
11
02
1'
0(
#650000
1%
13
0)
#660000
0%
03
1)
07
0<
0:
16
01
12
0'
1(
#670000
1%
13
0)
#680000
0%
03
1)
17
1<
1:
06
11
02
1'
0(
#690000
1%
13
0)
#700000
0%
03
1)
07
0<
0:
16
01
12
0'
1(
#710000
1%
13
0)
#720000
0%
03
1)
17
1<
1:
06
11
02
1'
0(
#730000
1%
13
0)
#740000
0%
03
1)
07
0<
0:
16
01
12
0'
1(
#750000
1%
13
0)
#760000
0%
03
1)
17
1<
1:
06
11
02
1'
0(
#770000
1%
13
0)
#780000
0!
0"
0%
04
05
03
1)
16
07
0<
0:
06
01
12
0'
1(
#790000
1%
13
0)
#800000
0%
03
1)
#810000
1%
13
0)
#820000
0%
03
1)
#830000
1%
13
0)
#840000
0%
03
1)
#850000
1%
13
0)
#860000
0%
03
1)
#870000
1%
13
0)
#880000
0%
03
1)
#890000
1%
13
0)
#900000
0%
03
1)
#910000
1%
13
0)
#920000
0%
03
1)
#930000
1%
13
0)
#940000
0#
0$
0%
09
08
03
1)
1<
0;
z1
02
z'
0(
#950000
1%
13
0)
#960000
0%
03
1)
#970000
1%
13
0)
#980000
0%
03
1)
#990000
1%
13
0)
