debounce2/simulation/qsim/top.msim.vcd
$comment
	File created using the following command:
		vcd file top.msim.vcd -direction
$end
$date
	Wed Nov 28 17:13:11 2018
$end
$version
	ModelSim Version 10.5b
$end
$timescale
	1ps
$end

$scope module top_vlg_vec_tst $end
$var reg 1 ! clk $end
$var reg 1 " key $end
$var reg 1 # rst $end
$var wire 1 $ led $end

$scope module i1 $end
$var wire 1 % gnd $end
$var wire 1 & vcc $end
$var wire 1 ' unknown $end
$var tri1 1 ( devclrn $end
$var tri1 1 ) devpor $end
$var tri1 1 * devoe $end
$var wire 1 + led~output_o $end
$var wire 1 , clk~input_o $end
$var wire 1 - clk~inputclkctrl_outclk $end
$var wire 1 . key~input_o $end
$var wire 1 / u1|cnt[0]~18_combout $end
$var wire 1 0 rst~input_o $end
$var wire 1 1 u1|key_rst[0]~feeder_combout $end
$var wire 1 2 u1|key_rst_pre[0]~feeder_combout $end
$var wire 1 3 u1|cnt[0]~19 $end
$var wire 1 4 u1|cnt[1]~20_combout $end
$var wire 1 5 u1|cnt[1]~21 $end
$var wire 1 6 u1|cnt[2]~22_combout $end
$var wire 1 7 u1|cnt[2]~23 $end
$var wire 1 8 u1|cnt[3]~24_combout $end
$var wire 1 9 u1|cnt[3]~25 $end
$var wire 1 : u1|cnt[4]~26_combout $end
$var wire 1 ; u1|cnt[4]~27 $end
$var wire 1 < u1|cnt[5]~28_combout $end
$var wire 1 = u1|cnt[5]~29 $end
$var wire 1 > u1|cnt[6]~30_combout $end
$var wire 1 ? u1|cnt[6]~31 $end
$var wire 1 @ u1|cnt[7]~32_combout $end
$var wire 1 A u1|cnt[7]~33 $end
$var wire 1 B u1|cnt[8]~34_combout $end
$var wire 1 C u1|cnt[8]~35 $end
$var wire 1 D u1|cnt[9]~36_combout $end
$var wire 1 E u1|cnt[9]~37 $end
$var wire 1 F u1|cnt[10]~38_combout $end
$var wire 1 G u1|cnt[10]~39 $end
$var wire 1 H u1|cnt[11]~40_combout $end
$var wire 1 I u1|cnt[11]~41 $end
$var wire 1 J u1|cnt[12]~42_combout $end
$var wire 1 K u1|cnt[12]~43 $end
$var wire 1 L u1|cnt[13]~44_combout $end
$var wire 1 M u1|cnt[13]~45 $end
$var wire 1 N u1|cnt[14]~46_combout $end
$var wire 1 O u1|cnt[14]~47 $end
$var wire 1 P u1|cnt[15]~48_combout $end
$var wire 1 Q u1|cnt[15]~49 $end
$var wire 1 R u1|cnt[16]~50_combout $end
$var wire 1 S u1|cnt[16]~51 $end
$var wire 1 T u1|cnt[17]~52_combout $end
$var wire 1 U u1|Equal0~0_combout $end
$var wire 1 V u1|Equal0~3_combout $end
$var wire 1 W u1|Equal0~4_combout $end
$var wire 1 X u1|Equal0~2_combout $end
$var wire 1 Y u1|Equal0~1_combout $end
$var wire 1 Z u1|Equal0~5_combout $end
$var wire 1 [ u1|key_sec[0]~0_combout $end
$var wire 1 \ u1|key_sec_pre[0]~feeder_combout $end
$var wire 1 ] led~0_combout $end
$var wire 1 ^ led~reg0_q $end
$var wire 1 _ u1|cnt [17] $end
$var wire 1 ` u1|cnt [16] $end
$var wire 1 a u1|cnt [15] $end
$var wire 1 b u1|cnt [14] $end
$var wire 1 c u1|cnt [13] $end
$var wire 1 d u1|cnt [12] $end
$var wire 1 e u1|cnt [11] $end
$var wire 1 f u1|cnt [10] $end
$var wire 1 g u1|cnt [9] $end
$var wire 1 h u1|cnt [8] $end
$var wire 1 i u1|cnt [7] $end
$var wire 1 j u1|cnt [6] $end
$var wire 1 k u1|cnt [5] $end
$var wire 1 l u1|cnt [4] $end
$var wire 1 m u1|cnt [3] $end
$var wire 1 n u1|cnt [2] $end
$var wire 1 o u1|cnt [1] $end
$var wire 1 p u1|cnt [0] $end
$var wire 1 q u1|key_sec [0] $end
$var wire 1 r u1|key_sec_pre [0] $end
$var wire 1 s u1|key_rst [0] $end
$var wire 1 t u1|key_rst_pre [0] $end
$var wire 1 u u1|key_edge [0] $end
$upscope $end
$upscope $end
$enddefinitions $end
#0
$dumpvars
0!
0"
0#
x$
0%
1&
x'
1(
1)
1*
x+
0,
x-
0.
x/
00
x1
x2
x3
x4
x5
x6
x7
x8
x9
x:
x;
x<
x=
x>
x?
x@
xA
xB
xC
xD
xE
xF
xG
xH
xI
xJ
xK
xL
xM
xN
xO
xP
xQ
xR
xS
xT
xU
xV
xW
xX
xY
xZ
x[
x\
x]
0^
0p
0o
0n
0m
0l
0k
0j
0i
0h
0g
0f
0e
0d
0c
0b
0a
0`
0_
0q
0r
0s
0t
xu
$end
#200
1!
#208
0-
#400
0!
#531
02
0u
#532
0U
#534
0Y
0X
#536
0W
#537
0V
#600
1!
#800
0!
#842
0G
#845
0S
#846
0?
#847
0O
#848
0;
#849
0K
#857
07
03
#860
0C
#908
1/
#983
1A
#984
1E
#986
1I
15
#987
1M
1=
#988
19
#999
1Q
#1000
1!
#1188
0\
#1200
0!
#1244
0[
#1247
0Z
#1398
0]
#1400
1!
#1419
0H
#1422
0T
#1423
0@
#1424
0P
#1425
0<
#1426
0L
#1434
04
08
#1437
0D
#1560
0B
#1561
0F
#1563
06
0J
#1564
0>
0N
#1565
0:
#1576
0R
#1600
0!
#1800
1!
#2000
0!
#2200
1!
#2400
0!
#2600
1!
#2800
0!
#3000
1!
#3200
0!
#3400
1!
#3600
0!
#3800
1!
#4000
0!
#4200
1!
#4253
01
#4400
0!
#4559
1+
1$
